372545 814313
70368 194382
334758 683347
61801 47710
537187 122220
250306 557105
632992 591562
149404 55297
867831 215746
427291 523205
51904 130491
545182 547208
313641 214954
3806 573612
517748 646181
745761 335935
381813 533512
445526 887757
180184 300054
808227 404981
462279 921699
897266 369672
492962 980145
632637 622551
754332 399762
894495 190951
201593 179954
277411 478792
435742 499929
913094 286464
980387 310283
580490 109392
531555 869347
334639 675736
473739 126353
274481 642122
447391 535382
505803 545487
845794 419989
330331 972224
977333 92001
863944 20393
15704 930499
470507 635774
13982 946668
567455 657896
5242 707490
662746 29729
856904 845591
653669 147341
779392 370208
916961 558416
435634 700721
139289 571012
361454 143966
807191 481569
802160 783847
224268 568640
779152 527745
86502 382548
489157 814965
841476 470584
435285 577571
579194 446296
250737 697899
64209 356086
931775 622941
61538 791503
224420 229625
622534 964389
276313 722290
848709 515079
408750 280395
671860 978368
183825 761334
398888 134923
202321 736071
241680 14999
278491 771885
678943 567198
394842 689683
624436 424038
500290 111903
113430 417955
143913 242352
151927 281639
218782 78196
401482 135752
38699 818772
53062 41278
828130 40085
938481 848600
864397 780283
552497 122739
770416 599628
504927 291928
644289 37123
156874 245960
499868 8227
310560 909564
945312 946743
766919 937672
637877 609738
750187 191631
821286 836854
111701 645819
641790 761917
723112 997304
673978 360197
963587 664905
139756 441722
578645 824179
22589 802138
656803 259334
729978 421956
973055 438208
127299 18705
411274 176776
576572 629827
252372 511435
487998 512450
390087 925792
645126 156435
510579 470651
122008 882597
869966 681209
886169 751814
361231 364462
57458 73766
757224 404747
904437 281565
139924 100751
716576 135496
256232 272209
296190 509234
283365 474758
543116 659846
792812 878732
510548 746416
513206 323078
896238 553850
538531 53288
282990 542883
887037 119500
708692 596713
204507 774867
992207 432241
830202 373440
469155 365849
233459 918848
928584 112551
523180 836871
815927 983240
656144 492288
182513 157846
53508 870868
833450 734072
710509 332799
741038 757154
878043 494720
355130 125364
135565 715204
818030 188937
847159 448274
226618 604374
628614 928606
854115 483558
423133 472334
101350 130732
984616 195654
834245 487006
586851 275819
396820 761214
533619 142940
944974 589454
267669 501472
907570 67416
581004 84181
497482 423574
989490 352805
368841 202022
613776 701038
387631 2496
273115 405709
205292 317138
329123 977002
797304 605585
241778 916980
36562 55587
81970 795494
114550 833293
841899 369521
217570 899689
991274 480478
506313 371286
371770 427850
457792 367901
535005 699081
899286 484966
545034 975371
544967 304206
63480 517356
751803 449991
984683 884301
539470 291849
334453 112298
166044 695895
251931 723854
465234 922614
492029 196229
438632 70111
543704 574213
580858 106467
407817 712978
389924 820042
324304 341010
824256 65547
550825 46951
261963 467510
715307 31847
848866 480854
142280 350694
110985 759143
757632 788165
705854 95934
194736 385703
345124 767979
673640 574648
930978 885997
876868 431012
601499 629629
639433 115849
710828 818091
644688 656491
673299 429627
942608 339772
75791 547761
980893 551689
568316 31942
940316 144452
956931 467669
618069 118040
390999 811966
784538 667436
197980 595001
933796 820964
612659 495473
