572516 430559 470
739822 768876 468
122536 347211 443
512842 268269 470
99903 75909 351
437874 401903 449
910745 782030 525
769885 342404 509
224116 291372 443
420147 841773 525
495668 267292 449
598249 535741 452
473761 59248 449
616001 751801 509
901059 399241 525
60221 147458 375
518219 763739 509
808158 803340 406
489269 749744 509
164872 980437 525
410407 921278 525
732956 603971 509
734838 519929 509
704417 243873 509
412171 206485 449
29586 982616 525
374249 770092 509
53964 936497 525
394629 739697 509
758955 24137 509
410288 658258 509
137605 807423 509
973111 622008 525
607691 359197 470
953031 334736 525
574093 8572 470
37190 227286 386
199284 799205 509
187767 463575 449
429873 982455 525
90313 841255 525
603052 379770 470
311515 824732 509
276226 628703 509
659283 705001 504
415901 142264 449
469021 146808 449
65204 455595 449
265639 965751 525
310609 754625 509
118735 482827 449
514289 566053 452
962925 2980 525
921147 759293 525
947856 19561 525
651589 489156 509
284907 777628 509
609432 866338 525
335138 607985 470
838463 544005 525
141811 251016 443
608634 126631 470
709108 917501 525
600923 183314 470
988008 286025 525
507905 430978 444
105591 227932 386
246246 871499 525
152871 813971 509
445894 354049 449
584868 81502 470
999324 65084 525
940970 457467 525
423612 549096 470
202492 27435 383
364929 304708 441
432312 947260 525
348261 304222 441
897409 632214 525
658591 46932 509
168942 579099 470
785726 934772 525
756808 502510 509
383503 57543 443
620828 20325 470
910236 788039 525
568053 544443 452
137711 562827 470
844194 10895 525
562094 355464 470
213734 636464 509
590896 814892 509
179211 923608 525
610239 859807 525
852752 233612 525
801370 998713 525
13214 442803 449
105328 601525 470
548687 28925 470
792091 316168 509
712932 384716 509
258596 454082 449
824916 610242 509
36395 674833 509
914070 896681 476
249193 261601 363
822437 475732 509
990618 903167 507
584229 21333 470
537876 543693 408
83107 108918 354
280059 440344 449
859826 896748 445
761138 407313 509
383747 30610 443
968108 848432 507
512809 304520 470
850958 108257 525
933311 79643 525
934351 171406 525
857255 226114 525
517696 601291 452
142577 52661 354
880026 423747 525
870778 906734 445
448402 623891 470
6985 461125 449
15395 722949 509
928150 929824 383
734744 897032 525
679782 647331 442
505715 204209 449
645561 822844 504
554526 370496 470
130012 174370 383
845409 500454 525
832562 458339 509
688052 561525 509
983986 312428 525
389057 887962 525
375858 102448 443
128631 729780 509
348284 74431 443
877006 806212 525
92126 131748 354
841381 223053 525
829945 277431 509
964849 957919 414
951692 109758 525
595369 574550 434
695713 466455 509
198470 179974 365
478943 248556 449
932676 396537 525
900697 348271 525
916554 216231 525
673855 832504 504
683879 740718 504
91931 21656 351
411284 829511 509
953517 774711 525
681138 322100 509
236147 415394 449
912731 589826 525
520332 294545 470
17278 215766 383
534952 396023 470
544359 337326 470
521660 905211 525
619741 8786 470
163533 318077 443
685418 149804 509
861913 303383 525
64605 196870 383
353393 327465 441
948527 29862 525
838614 836967 525
973711 237729 525
292614 120460 443
698523 417213 509
128502 792937 509
680871 513407 509
711019 335646 509
936730 725224 525
470473 322719 449
477118 601821 470
971147 443247 525
351690 940165 525
495060 117309 449
300409 279863 389
898795 300130 525
591197 912652 525
710725 229885 509
940535 611884 525
215510 153049 383
272601 408911 441
755907 27217 509
53 327445 443
656927 842686 525
221805 537300 470
755612 854496 525
528228 85965 470
931464 256361 525
915578 558216 525
786162 546038 509
39670 462946 449
489867 232275 449
471527 486942 413
937486 65495 525
813129 213784 509
130780 146496 375
297871 349011 441
827483 651349 504
573508 654512 509
461016 96278 449
326543 816682 509
599386 24263 470
429301 461465 444
247486 617228 470
326440 244399 407
283123 85380 443
191301 451609 449
435630 618972 470
374182 921257 525
517040 706296 509
681176 803557 504
25485 412554 449
753052 289922 509
677132 631128 442
399161 661952 509
683677 982796 525
957382 517284 525
924370 439702 525
355889 334881 441
792089 784206 406
927937 29405 525
385590 306212 441
922845 690480 525
13856 659274 509
205434 7472 383
615882 807164 509
181338 136247 383
587013 228614 470
818411 675239 504
205879 522232 470
5459 297241 443
391584 585183 470
212451 184203 373
879116 94581 525
214206 292929 443
624897 793759 509
654134 908486 525
545589 4581 470
310065 484170 449
469139 472277 338
483734 412815 444
527050 318720 470
42232 908969 525
419627 111036 449
169380 470063 449
442818 101893 449
30016 267851 443
971770 758785 525
851626 351835 525
909407 275523 525
9287 118620 354
614030 10701 470
694200 577354 509
421800 553971 470
208290 945197 525
264906 410289 449
349913 19434 443
146794 663263 509
