149711 184178 383
455671 678915 509
397332 604015 470
14919 71428 340
460747 686852 509
685520 596358 509
748732 803596 468
610348 10983 470
964189 261743 525
794312 295596 509
833419 448255 509
954497 28215 525
955783 869499 507
123801 126127 318
502751 244923 449
911634 479014 525
174515 809627 509
545202 163086 470
261548 545434 470
443382 554418 470
672829 831801 504
516702 994792 525
13683 358451 443
583687 749805 509
866492 347142 525
449644 638278 509
382022 883659 525
308771 435147 449
658731 637406 429
328897 819175 509
693690 376753 509
36150 315768 443
425205 859740 525
624889 984529 525
691604 730049 504
201952 847367 525
610079 400685 470
600151 294722 470
731501 657781 504
240670 223234 443
305880 759601 509
398309 142478 443
936164 911226 476
344676 841504 525
457643 645160 509
23996 652711 509
624348 22128 470
892048 693907 525
100229 512519 470
570961 313744 470
509170 607804 470
802934 466918 509
598354 180192 470
926501 880154 476
904270 783104 525
104768 85575 341
807211 31428 509
775620 573159 509
53873 70420 335
379399 715230 509
740539 991292 525
307795 403425 441
290025 74216 443
380015 674060 509
226705 322009 443
536023 678249 509
264606 854709 525
583502 461753 470
907411 616960 525
875426 38308 525
744016 658372 504
152651 757243 509
328132 820875 509
561554 733509 509
948672 804999 525
758422 492243 509
693698 86767 509
731644 667637 504
203563 557038 470
418465 643811 509
44868 904344 525
10519 804857 509
117890 858829 525
847606 241680 525
106958 818430 509
88646 603333 470
475083 281774 449
809570 983144 525
469629 234614 449
886177 483766 525
548464 580872 421
476174 270964 449
119247 903038 525
334029 657449 509
129095 853908 525
309398 594044 470
710928 381706 509
311679 308834 371
529871 411000 470
758863 214895 509
452724 481134 444
441164 757524 509
376803 59654 443
485063 106762 449
13566 707967 509
878660 484111 525
28607 49079 324
361250 765103 509
316577 666784 509
296416 266861 407
640305 170624 509
683775 44110 509
912941 538465 525
259706 726043 509
838258 440519 525
583198 827117 509
825260 239726 509
128722 373607 443
754630 660434 504
668775 591426 509
439005 292209 449
293930 826830 509
551542 475855 470
115173 885430 525
318724 722948 509
806011 662360 504
307527 925374 525
641550 182659 509
470941 148924 449
893713 99075 525
580467 59112 470
817562 963435 525
31866 522256 470
548962 238267 470
463573 715726 509
566242 263412 470
599236 376668 470
31077 993450 525
740933 286637 509
179856 990159 525
341778 859001 525
498690 726973 509
874954 270403 525
54368 691304 509
908973 818380 525
166624 105557 383
187596 485361 449
965977 818202 525
835791 168470 509
674296 787837 504
453838 87918 449
194807 611443 470
515690 619836 452
36591 653238 509
825614 568997 509
983653 172921 525
579294 509225 470
366937 324847 441
538000 990905 525
714906 205654 509
572935 276592 470
920650 115799 525
303760 532914 470
716587 976804 525
442500 653503 509
674104 48208 509
174496 382956 443
106802 481732 449
984894 970015 458
727181 818203 468
203501 325446 443
132558 518973 470
110035 575737 470
40041 743290 509
32742 250827 443
785592 426304 509
369669 534241 470
505640 210202 449
176305 702363 509
515631 572135 452
140526 410000 443
393319 178438 443
120340 235984 443
837393 333274 509
807869 684986 504
223729 642452 509
604407 301289 470
46843 713483 509
418448 326300 449
488907 259232 449
362547 694345 509
45161 221933 386
440740 365966 449
476459 648517 509
658002 439755 509
220394 706024 509
73717 868033 525
289410 717053 509
84698 1305 351
811809 768182 468
611555 538821 452
149684 865745 525
110544 208543 383
282598 901997 525
471189 41706 449
179157 943563 525
184095 916113 525
723439 788454 468
72305 240120 443
564696 974297 525
552082 595018 434
474748 964686 525
636865 416714 509
262527 580948 470
790764 686339 504
989631 987821 352
