239640 304868
367965 401494
463761 775874
589425 339046
536571 815667
233076 91589
308491 3750
769147 869265
99107 350936
882812 869842
353739 585815
548990 517534
334898 706822
589537 766644
668224 953689
364982 802115
972646 35095
28954 535530
616339 503817
718159 898884
31020 195516
883135 599286
589429 511906
854325 238471
88577 3275
751842 214897
68946 300776
388901 481542
337852 52019
729808 734406
582018 816171
212351 250303
320586 704583
901790 251487
696625 720128
665967 309277
277481 248386
804363 618558
699135 570471
849060 702285
685701 135336
298526 232028
304432 791252
90474 603814
64208 522829
838905 727651
560208 705179
331478 550520
157884 384635
800897 954271
12934 450367
729457 214066
989667 699026
841932 485745
990211 121384
777848 669303
470 324171
620961 863677
526850 337468
644022 467616
940617 477907
705833 859324
47933 964311
600337 729103
11717 496934
45649 712945
551175 932670
636113 879273
328952 266245
567158 760414
395113 114837
654338 73016
749091 165613
360535 690654
383860 650229
827985 837500
844671 909562
150375 696546
820321 821031
447795 168124
175116 573082
731309 638239
327184 684439
911266 248759
257923 248997
894924 677365
837355 742316
794260 650907
120325 408538
245176 724465
831175 692314
767165 568648
386362 860242
703443 633940
317419 41563
9970 4025
466098 366793
452209 305064
651525 136451
573211 462989
914580 74281
631694 63244
128062 664911
223317 786896
572737 836385
38672 86508
239538 787542
761187 230506
298076 467193
659134 448712
337741 478733
119675 873304
751045 871484
119640 904135
554610 611892
406704 241016
785741 83023
560794 987584
484664 44328
671920 708346
433012 300370
775010 968289
979338 42139
672431 142293
2508 954079
550288 295230
630089 1713
390370 1359
994987 599221
390656 633651
822017 726755
570031 130339
986069 176642
25286 960281
938903 224648
396218 486656
472498 836825
919209 304332
653084 335970
18416 406763
632641 128584
63531 972447
168002 635393
779757 781634
340541 55546
534192 725653
678162 946107
782112 761551
33041 953348
247637 493441
978344 105280
697668 262653
373490 850037
261687 786201
783474 457119
261512 575744
567920 371827
954175 922751
667368 288894
687428 464287
621799 631516
325066 573735
905216 97477
197791 59621
706673 303788
365895 937529
26852 580453
415576 824917
517215 636552
223414 217790
172977 982217
151854 508937
375733 136899
490325 446222
317914 824253
75812 426962
301860 631391
61563 318452
353798 109997
925470 340860
603560 103537
915782 545377
565757 493931
437384 72614
959757 649567
978973 451021
731484 372385
986660 278243
756051 920906
956348 487657
226029 290469
918305 456033
615998 559285
272247 280900
561399 952084
342578 146088
502184 89246
673070 955955
790326 911276
863278 646219
952001 596072
279630 68676
749778 179043
522310 631434
894868 705352
560197 376834
197445 785028
869610 844445
955324 296857
789611 152091
349798 627124
976063 589060
35912 594252
142777 980624
483632 788625
