885660 302349 525
745755 904125 525
653389 95862 509
258899 162237 443
372226 960062 525
176395 63234 383
843999 174311 525
448461 625779 470
204053 238908 443
522504 823255 509
142209 798164 509
766682 574413 509
648415 599436 509
769184 675540 504
251355 617583 470
639805 91058 509
729161 264611 509
272005 618242 470
917326 760040 525
776631 310909 509
493740 370875 449
4506 821333 509
721347 407837 509
294690 986120 525
97197 359501 443
132824 670608 509
321070 680360 509
469072 213295 449
561284 571789 421
584632 724374 509
461952 212142 449
742169 911444 525
525886 404497 470
68989 395880 443
199423 363888 443
492115 884665 525
319009 418541 449
123180 126886 331
739012 123923 509
481319 518841 470
941477 324522 525
361253 697590 509
515621 984966 525
131932 513494 470
592789 300642 470
355636 527169 470
496576 59574 449
978348 494475 525
861878 834385 525
790401 157030 509
986551 422220 525
660713 857703 525
29148 17252 308
19592 48914 324
871079 766915 525
946714 213987 525
83121 327911 443
638543 916469 525
548695 451860 470
684015 311689 509
898949 670545 525
133555 927432 525
134458 6016 354
856578 9943 525
137651 18219 354
489645 945540 525
800274 905807 525
320425 470164 449
784660 134026 509
85 489932 449
628085 176688 509
648032 198025 509
883068 464176 525
556829 176746 470
459916 87409 449
318245 943121 525
609789 77773 470
835420 900502 525
196459 504486 449
106244 290335 443
645791 222010 509
188067 404990 443
265218 906788 525
152941 93466 375
570316 558270 421
718419 92971 509
461576 77621 449
701589 334491 509
732721 580981 509
42021 734638 509
228839 937357 525
489847 917258 525
716362 437964 509
776036 202271 509
774438 371584 509
154654 928142 525
167212 395508 443
561900 180328 470
273782 272105 314
693228 598524 509
221033 834685 509
202652 670775 509
180656 450818 449
715062 348941 509
240561 986602 525
178337 70740 383
43755 866815 525
359070 135050 443
354055 570843 470
233224 811566 509
808575 592651 509
107960 2884 354
967021 606165 525
448198 615857 470
381543 953084 525
84019 422834 449
221556 422879 449
822168 748519 468
669890 598650 509
91417 483930 449
4322 302460 443
444502 280419 449
408236 40026 443
984006 619519 525
650400 714937 504
914201 121381 525
824999 35213 509
853801 602501 525
4811 994504 525
848997 974121 507
79895 604275 470
449963 859351 525
317330 164613 443
776993 824544 468
623960 314324 470
446002 131284 449
56749 125532 354
492763 662792 509
541586 239082 470
323679 516983 470
669379 776534 504
567889 286541 470
883329 797437 525
240562 499204 449
555662 722847 509
481770 26091 449
367124 815079 509
588236 191257 470
195317 170485 365
135123 327688 443
614854 608701 359
505949 582024 470
818132 375121 509
821824 416042 509
47358 251648 443
804947 83193 509
531667 296095 470
421900 723052 509
13790 7613 276
752021 870208 525
600167 608107 403
783795 553962 509
386998 719715 509
230853 51545 443
916868 108829 525
985448 182064 525
958420 609452 525
453481 115289 449
797240 730391 468
176144 137795 383
609582 217054 470
128330 64819 354
953896 498469 525
858446 875921 432
495749 537224 470
623271 616108 372
157485 212633 373
93064 945170 525
652918 218344 509
548227 823541 509
337230 173360 443
191070 366687 443
470713 859858 525
297082 589886 470
716519 166704 509
933374 465102 525
577055 397009 470
452265 142720 449
903039 12023 525
405518 243349 441
3546 41031 324
805479 205424 509
980713 367415 525
490203 733856 509
466024 102835 449
756539 934900 525
913150 3261 525
379891 610878 470
73812 646507 509
591185 656971 509
402819 761742 509
433786 65566 449
603470 842203 525
219865 681447 509
670036 613864 509
627722 363088 509
807366 145333 509
598613 978898 525
93386 643197 509
308613 518224 470
564670 738295 509
104497 693803 509
139861 786499 509
262736 210549 443
202944 15391 383
621257 192794 470
965478 957337 414
208184 831592 509
933421 691009 525
668060 923840 525
300107 865248 525
107865 822346 509
976107 744386 525
422934 679491 509
354727 242956 441
47950 347483 443
129228 549608 470
375332 52927 443
244197 157921 443
419364 536062 470
34458 543257 470
700441 72624 509
801406 856089 525
936972 417662 525
428475 232729 449
896445 126693 525
285785 551777 470
854760 17601 525
714465 356077 509
181200 67943 383
367558 932895 525
626794 705387 504
242730 818938 509
873477 643673 525
723112 932792 525
497868 334951 449
382660 241607 441
863105 873692 432
418689 159431 449
236495 778581 509
849557 7237 525
309617 149896 443
871797 197678 525
123287 144278 375
488968 963451 525
357047 95770 443
764202 308392 509
100086 714143 509
90627 159752 383
143999 41048 375
58608 930793 525
608129 823429 509
171367 505258 449
564670 584326 434
628770 768829 504
373097 641859 509
297349 252921 407
743308 643432 504
66641 96386 351
694924 450355 509
913055 108767 525
269767 921347 525
38697 201171 383
130342 349296 443
333656 330223 353
619849 288686 470
523913 560709 452
158598 224214 386
983557 176570 525
692195 632346 442
103582 969391 525
765711 156936 509
146813 809061 509
20410 414075 449
920340 598273 525
82415 895152 525
138837 331713 443
701519 705314 504
994337 581948 525
662660 607164 509
277168 846126 525
267050 551232 470
843605 746877 525
609234 217789 470
537974 801232 509
489562 383571 449
366011 137868 443
527490 534978 377
623852 114870 470
24132 369547 443
