92433 998855
843989 24422
872916 699560
374802 710377
918894 991829
972565 651001
453423 914722
212617 326041
371375 17890
793004 110029
369421 736785
443676 861410
132027 496002
286621 395925
521453 12564
125426 446901
240358 486609
231150 240790
645794 71420
154464 481861
602241 42354
378342 772128
4857 990654
64519 113322
470336 610402
200697 343313
270357 350942
407028 631214
694930 256681
550790 449538
894301 872584
520695 27429
337470 543836
672138 321348
282666 522408
893542 256306
856835 504161
695798 166888
91989 557447
3605 201794
756288 436501
245103 718919
320107 936073
230407 71320
56932 105364
775012 501242
186267 600126
604200 942467
898421 724384
8731 614769
42108 425053
829322 302819
506574 169110
97572 562861
27271 38292
822082 406144
513862 439060
148950 911253
26675 497961
703041 641986
220365 77880
731897 815232
933245 712273
166536 161272
747119 311662
394992 448354
396173 921767
664954 262255
258427 515289
544211 597161
853008 113886
836809 430160
211343 963275
778799 719431
994036 647600
113467 453526
312480 811414
509037 196905
927682 53000
636631 201027
217869 590121
780673 171527
336804 468390
953386 914009
606684 5782
620477 245690
65277 116386
889346 205151
194494 600937
584098 745827
2858 916933
170158 401121
964720 985383
295048 41443
456927 684040
430953 616936
24880 198143
338421 659016
804371 684751
465884 679916
759160 32291
137230 523940
534456 266439
742098 90510
199677 30762
105280 239714
279362 14712
947194 683427
176609 537696
56603 855217
635067 51584
729398 596830
89585 326484
933799 915768
300919 571037
804698 701697
22196 324308
954829 415448
912643 49374
68928 398282
305329 378490
775171 201205
610876 13965
867751 26281
837025 864742
502298 547323
793736 508699
651386 115757
354759 307642
21650 110964
128653 441241
946948 237054
526888 56318
459252 846107
380858 897182
764866 423178
646527 676412
871412 94900
488285 613301
563407 289953
83956 940769
207916 213171
539862 598143
50310 236322
656908 408693
515694 566433
987812 440881
751604 354503
294683 16970
234593 343832
725709 426633
395296 198504
438730 453881
849190 116281
430019 807232
118725 8632
722394 918928
279987 934256
86781 360565
293263 146319
52788 693137
356436 534722
623973 402714
204993 542339
245051 234223
140200 769352
907661 974701
732037 809193
430719 422695
813588 731688
883516 488010
634823 232346
366360 476928
321591 991905
171139 68806
229671 730560
263924 859503
951387 875184
262809 81400
397810 626712
395105 576409
120542 395102
499667 986511
582232 606698
251556 536270
754010 877749
261407 70907
113373 712516
612009 375814
72878 191152
469770 998917
315338 895920
444687 366940
333114 333513
330403 779474
792975 129902
476631 465556
294435 945998
156521 529282
95671 355313
5673 282340
612306 660072
295891 852680
228613 649752
156270 343851
218222 727290
131663 286739
74272 327349
153282 502749
404746 97126
47885 821927
238038 558940
796271 567737
749219 778040
382652 759735
313334 893620
574692 145347
645640 778948
655778 633070
565445 872418
251099 335421
898611 237522
284361 886635
385974 209150
80025 365732
334156 23428
731597 847889
95732 131346
345380 554746
747093 437377
529024 132384
666459 503992
845460 263775
533460 892026
573899 242638
75133 742441
339924 208825
735127 29473
10220 50493
539691 300883
322530 927805
537392 754662
962322 184685
984657 582740
110628 599140
924558 105870
977796 657415
324798 350909
513691 98887
960288 730868
