226702 711127 509
35451 776271 509
516207 428229 470
480849 697452 509
40616 334049 443
87060 532132 470
161249 810157 509
486357 145364 449
109777 79793 354
166816 61880 383
731221 68612 509
160900 369152 443
311938 218328 443
263966 732018 509
891342 537804 525
132280 100695 354
624972 278363 470
942449 486194 525
853605 493754 525
183152 567571 470
515004 511036 470
338831 272901 389
609274 59837 470
128465 373811 443
75013 965104 525
293600 875572 525
204125 148154 383
674549 239028 509
146236 538572 470
716112 869193 525
125608 633198 509
823335 64031 509
296856 711318 509
428627 147022 449
302274 451761 449
454291 960398 525
302548 961607 525
995926 482150 525
647008 454664 509
218305 175991 386
493291 27931 449
312297 704971 509
462442 574110 470
840877 315062 525
471125 286589 449
257939 379072 441
394033 30550 443
344302 818063 509
689276 479791 509
601318 687626 509
604874 35931 470
321471 773300 509
339618 583746 470
937658 374469 525
167733 888712 525
874590 53793 525
316637 824956 509
320718 160950 443
90109 664723 509
139047 157351 383
940626 659050 525
907462 391358 525
628492 198180 509
840679 773211 525
887166 673805 525
549852 631191 509
189038 715583 509
970387 579153 525
831383 258683 509
384928 592034 470
450425 677456 509
449767 59901 449
24537 504902 449
768483 866740 525
758264 61144 509
114237 148183 375
85705 12267 351
557149 238239 470
480903 844550 525
686617 843061 525
807114 80633 509
187798 289543 443
393415 841803 525
610747 703268 509
911392 747363 525
978136 681161 525
675536 46504 509
999057 407180 525
94808 256374 443
771335 389082 509
401209 482747 449
285595 672272 509
412082 502599 444
851692 723448 525
264666 282155 407
9136 150907 375
154290 887032 525
324373 615786 470
86910 534252 470
256619 397086 441
740964 775249 468
326028 44779 443
689217 677761 398
128922 116426 336
458609 15615 449
212150 710232 509
204782 305490 443
481535 105122 449
869949 744455 525
839734 533023 525
401492 767292 509
410127 533123 470
166941 778833 509
619632 382941 470
238847 993644 525
231704 481671 449
879130 702405 525
452908 640759 509
872864 337896 525
599415 86914 470
717997 454144 509
86981 252766 443
659806 988997 525
931180 320952 525
2094 378140 443
162121 150271 383
555228 687446 509
118793 921057 525
811470 649898 504
668318 310576 509
575492 902580 525
995876 595797 525
203317 374415 443
814525 381683 509
864729 275415 525
74894 801417 509
187607 464474 449
110255 430326 449
978816 17124 525
883280 475524 525
478350 114883 449
335071 934428 525
493231 121606 449
408898 751146 509
643168 151172 509
105246 49462 351
268026 887698 525
741003 322168 509
699985 598493 509
167884 360309 443
11463 922929 525
868394 61854 525
902778 295875 525
712593 845251 525
891266 266369 525
755787 499858 509
808196 918297 525
231935 482756 449
372873 286319 441
180944 545156 470
998951 331369 525
747530 953901 525
206035 159641 370
239805 128287 443
396907 789347 509
750741 571446 509
955281 325413 525
394303 916498 525
761671 579088 509
736970 831984 468
389903 471955 449
199800 410688 449
726089 222487 509
128113 485028 449
455746 849623 525
762919 853118 525
604367 751652 509
174207 158299 370
53352 19379 340
755381 514123 509
129241 238337 443
370996 733261 509
279545 719253 509
940525 963248 414
660477 826007 504
834825 107250 509
762311 569400 509
98969 55940 351
105768 721837 509
278629 505189 449
813822 697291 504
384361 583794 470
607926 331278 470
994420 643112 525
630379 745874 504
13199 71553 340
817210 912201 525
76821 126018 354
142986 71156 375
46701 586329 470
97075 326851 443
103203 850675 525
43988 50517 314
876849 853202 432
813053 159693 509
711178 574020 509
648993 344016 509
367813 252125 441
465357 569572 470
762519 747575 424
685538 243223 509
873439 265411 525
521987 961134 525
976936 362259 525
176578 869952 525
664972 314870 509
201412 968835 525
121939 188598 383
815523 609715 509
971368 132307 525
44459 918663 525
745944 469111 509
585195 147854 470
902708 283975 525
758644 997305 525
836319 209425 509
633506 426876 509
632204 136895 509
870808 76478 525
664589 820962 504
788827 870781 525
743621 563152 509
989083 182188 525
725919 779394 468
991307 332282 525
660414 632518 429
143798 796125 509
551097 570224 421
847735 680604 525
937503 211781 525
235241 839941 525
871540 200056 525
428242 335597 449
2074 896028 525
120389 843392 525
574810 981915 525
