954911 184617
860871 550697
292502 783801
483703 930625
402786 378757
47265 938765
183393 384625
779053 186349
353468 383652
961467 546421
447291 78882
345131 467744
35908 650917
180584 4242
48008 568592
893670 769131
113641 82228
708031 489761
932082 166528
865484 323362
714052 819160
337502 125957
365303 980188
20976 431821
600543 996775
49478 129488
266148 315459
905632 309847
419489 504108
26743 227733
139737 658114
872922 838060
342056 985904
36123 875136
69234 478311
766085 613151
325207 883894
26247 969909
716500 126639
155401 435004
554449 693082
144293 113643
582194 466923
280547 873673
631653 526542
287829 628051
145580 18168
897148 145554
631958 248337
573437 252037
202564 725869
883986 597924
269224 469995
316099 885109
931591 431880
714687 653214
306989 591433
740770 223228
324989 384739
329114 696557
148615 336728
774042 101232
306391 771369
947154 284111
258398 454181
108860 941157
648633 580981
115595 628871
599161 625560
144333 166946
561523 410336
554169 593630
341484 868066
267714 518014
128567 833533
363487 20521
728384 579729
693152 561172
266944 449336
997628 360141
442046 886046
706548 839239
802493 930356
646937 878345
872667 140052
677923 585543
343448 505595
294969 894691
863336 522224
217490 179117
533225 54476
622714 384778
906255 156180
613876 181437
944227 552090
597527 3198
788021 154886
328220 953039
379736 342598
464469 97472
905253 469339
226422 674592
988004 646650
429390 2476
825957 232934
751888 518389
456115 447712
46311 157500
277654 471576
923641 875858
791060 877169
712057 599602
716725 468766
402375 141731
200721 476489
765026 202014
839311 968904
837512 64612
710291 836616
520249 673647
656141 549578
161505 603613
378569 999967
118005 959485
499687 852526
324782 453924
207485 846794
129170 943203
368931 167226
488379 956635
813200 494050
844795 185730
611800 997391
510214 562087
173932 642736
442838 921490
422418 63173
536722 254323
961471 273252
353650 868861
482050 172417
63295 811351
59544 476808
515356 108318
48370 257646
538317 186797
747651 495071
969151 498396
162606 594529
813474 859076
396210 491929
928681 3018
624093 764890
18774 531373
815070 440119
479814 961621
551891 358596
222324 314373
360827 837208
115087 200637
747272 339996
856748 434311
924869 958545
534607 42300
693443 916758
255020 511611
701288 425855
19593 337110
219411 163349
825670 236334
714293 260126
633644 748783
274755 652123
302068 931965
361717 235333
491856 664509
250115 644852
692288 161625
897494 461812
840750 314718
549671 999820
450850 103209
420246 888472
916556 145226
314501 890476
136960 701531
853486 647692
769198 212251
225594 932603
892831 946095
426566 826077
576635 518517
922059 159722
291990 497465
807163 511186
719417 817803
25431 239755
986028 140876
133022 252533
860162 580241
374727 609612
307721 995549
256662 278223
91408 815146
253577 14997
29048 534668
303275 177934
243611 908189
813848 935710
392870 451692
384124 238136
738382 771948
993101 560973
942116 908006
312744 143354
54608 373756
84707 916553
88688 95833
177607 106846
952407 517250
677824 246791
165133 295661
784539 885967
875659 355708
435608 572272
919586 443612
293509 122581
25518 222333
200843 844264
762256 866294
748791 7360
902893 664958
504847 777040
482233 653671
