700397 893490
978509 195788
154696 851920
574405 4231
739389 267537
269616 523098
257811 213978
18862 258036
543946 264518
877648 288162
150546 253484
164157 46123
878456 157783
952283 825301
711494 853066
537452 911658
358803 110894
326688 195507
362115 316763
787163 238310
13557 209853
340256 176459
791059 184326
467609 155686
524256 933940
501135 973772
885551 273271
612333 834690
981252 38661
384884 221011
358642 259052
341234 163937
541862 528792
664607 203853
216469 285899
233596 497836
673065 800445
240660 62482
576805 115543
521696 167487
889517 877408
64732 261647
491348 314001
634279 945388
501536 445135
719470 233676
335995 99058
473903 349125
521023 603151
449363 149729
229526 964552
282295 431490
266694 63143
191147 51168
753386 380896
624817 294279
138482 54524
34027 395323
631432 911822
60407 294113
539276 123019
544251 823255
891174 466587
537532 877166
407078 7072
464057 907542
620787 639528
40971 514969
971263 936456
624124 963614
922588 456245
152442 994649
807965 893633
123770 116515
623558 591189
42348 637938
861240 432208
850556 978338
828365 755174
5619 818667
13720 554788
782938 126661
456279 969111
73064 141292
936106 756943
40451 948654
847368 476753
733351 101682
446603 670380
59564 340226
987888 116554
111922 283625
813760 272180
216036 580401
746207 938490
710862 142470
249991 33098
456555 432714
142674 694075
27426 455538
71731 836979
244196 950664
971518 628058
373947 622260
418919 252533
994049 60064
496421 10491
616196 209550
334285 475643
685001 204759
363918 118531
552752 153071
144214 143477
375294 633574
680049 159881
727480 435098
453019 929853
47905 986749
11642 585312
407150 968539
604182 983602
582205 955843
985167 278827
428670 519695
34107 926884
674671 548484
331278 835667
684640 264898
206632 734612
124315 451432
474920 735925
184218 315238
909704 415711
840840 845182
389424 239276
58729 217375
121492 922996
406621 364823
687057 159265
733723 760559
113328 965810
751305 548004
688718 511874
445965 875339
231608 664008
870619 785912
605037 474848
184079 843964
256438 809488
172861 853244
968196 489972
362562 684158
530006 863179
410313 239205
4124 659344
257886 898919
304726 592667
879334 618697
45983 102818
668934 592778
229550 460794
903689 967214
816171 532701
947063 943887
946340 718680
424745 58345
700386 476677
322706 716094
664323 591976
119745 81208
736148 571279
741209 124195
651581 207976
720482 498532
539117 27066
533955 691250
222785 24610
566064 217027
253882 979052
663815 991406
538784 493534
715391 907418
39522 431559
340135 416919
248404 899395
496264 116807
953354 733537
150693 757839
755537 707881
185191 450208
243861 595399
719145 895409
863894 355980
730318 917153
747572 201042
340142 95729
246631 466899
473993 904175
107244 609891
323503 616198
630492 450820
790307 81805
583131 111444
989594 76953
773658 830078
292529 358086
72364 110217
209710 983615
455294 612985
797951 910981
897924 653353
103335 558407
929297 745554
256055 76821
652366 231028
578557 258573
771458 948182
156300 104800
332755 506306
752936 769725
742418 981209
924450 25701
872394 290213
893665 416631
275251 891290
796803 492545
778098 908866
340304 846584
820240 607398
84124 473108
815081 394856
769369 370118
693351 627387
515215 158875
269263 330841
369077 187588
954193 51167
775178 657435
116006 752631
359338 671125
704060 270275
867097 469107
86679 645694
752151 348743
200297 461021
18990 404959
260054 332754
191065 401988
306697 897797
147172 298604
460031 382150
255674 162062
667403 443225
424904 830193
430195 944377
681960 804957
443657 373361
521730 410885
427929 661095
7961 32241
328541 741409
419132 147276
