991161 124073 525
580643 157712 470
298206 135882 443
380802 151544 443
310081 831755 509
147344 855332 525
281681 817069 509
954696 301552 525
757494 36972 509
987399 186970 525
640597 521477 509
7827 660724 509
300565 577914 470
440966 463377 444
579929 410401 470
592641 371676 470
788006 597674 509
100264 931598 525
85976 942518 525
365904 717990 509
95736 683072 509
826572 358548 509
85454 957670 525
775767 833896 468
264890 784015 509
774855 757229 468
562170 200847 470
581250 668834 509
274294 480564 449
402514 151037 443
13704 522502 470
129981 898247 525
836499 693707 504
469069 682969 509
306426 550228 470
466296 737011 509
212576 521592 470
476292 22020 449
81176 126531 354
560455 596972 434
925933 831066 525
2228 714842 509
311569 561348 470
121594 153812 375
502475 782226 509
540288 715754 509
107025 769166 509
684543 461671 509
26251 724184 509
187811 233906 443
347300 89237 443
676569 723659 504
295562 389016 441
7252 356200 443
47911 810312 509
211490 796118 509
728717 904659 525
633906 486774 509
844984 126290 525
455643 405789 449
559750 686738 509
167891 498843 449
63942 603415 470
177576 884200 525
632766 317520 509
424714 830123 509
65777 905714 525
397558 533623 470
205596 25378 383
754136 616248 509
631965 874281 525
50781 93904 351
265165 767786 509
906435 627337 525
383950 207462 443
799876 617335 509
518625 161796 470
39514 529150 470
50922 366536 443
268041 229764 443
827847 665577 504
116636 814500 509
518577 120764 470
466212 681934 509
400508 862825 525
631076 379935 509
945905 943063 383
675078 858088 525
558419 10879 470
676834 407219 509
699805 236729 509
218337 888005 525
596148 673341 509
884581 819256 525
736274 541389 509
82769 149552 375
203359 305991 443
433013 632321 509
740745 71033 509
748600 434749 509
973029 139899 525
97699 728953 509
949865 323360 525
833187 704973 468
619803 814699 509
493428 486324 426
425433 462387 444
16965 789798 509
320913 954446 525
673539 372329 509
271455 882410 525
33187 272442 443
852097 586345 525
747447 827881 468
951487 844887 507
178848 28030 383
844694 198898 525
305008 319669 384
90585 891830 525
129556 992775 525
945514 154987 525
158084 861998 525
143322 386835 443
386075 885653 525
75750 407498 443
438033 562294 470
574596 676798 509
910908 381067 525
734130 334228 509
830531 238426 509
138970 204185 383
597224 222158 470
273051 747211 509
887858 603822 525
245413 249985 350
25984 892100 525
101523 479866 449
738028 187474 509
820043 241999 509
630230 117661 509
341374 956749 525
249933 290212 407
316329 55876 443
669119 371373 509
585830 962394 525
422651 683684 509
801629 420202 509
965150 266753 525
492830 49188 449
749604 799473 468
847976 634254 525
983171 715110 525
960342 372331 525
123755 154877 375
177817 296997 443
834324 736691 468
867972 170460 525
953591 183143 525
618151 556373 447
670363 309670 509
960832 408728 525
965929 529023 525
923497 377253 525
93197 802166 509
420755 535195 470
668992 579866 509
670711 265060 509
723152 882562 525
738422 415306 509
798077 293482 509
515541 108669 470
793674 973394 525
665356 690858 398
185968 299148 443
101224 451168 449
77616 653994 509
131786 294234 443
394987 372524 436
615727 532649 452
763141 116248 509
834307 482971 509
235261 408998 441
848291 359369 525
377209 696843 509
587106 250992 470
494092 596790 470
437699 664228 509
649641 14001 509
733084 847153 525
121020 615422 470
64907 625857 470
362437 236180 441
598700 474205 470
841880 481155 525
768249 992542 525
248797 269881 407
158670 182766 370
174201 580280 470
542468 580391 452
716661 242054 509
999919 423999 525
427525 637642 509
649458 7090 509
766142 451181 509
579446 919544 525
339492 937967 525
809431 395159 509
845752 517673 525
182695 832180 509
869078 464659 525
512183 259353 470
942250 286282 525
448790 392048 449
527330 12028 470
165997 931085 525
513325 919043 525
974318 787932 525
416750 627172 509
283455 543984 470
229969 257861 443
606127 834018 509
351392 928457 525
463218 457598 444
34212 868036 525
64637 313853 443
592748 815448 509
528624 748089 509
503860 124542 449
603414 849970 525
467168 782475 509
896525 205061 525
