253475 496156
752728 341398
577670 604270
646643 216283
807944 294367
550633 441557
783160 589976
41547 669264
819919 589482
327319 481735
358580 242662
728936 606720
607097 999892
183709 642076
221187 646670
836210 689621
75738 687883
437742 114368
306824 9823
166094 820065
558862 135691
765871 886114
894886 135699
210832 62099
669452 862243
819420 310944
834884 805287
862250 471577
999411 4932
591286 984401
285351 583408
73311 284719
902097 977221
632162 744686
384982 839049
190462 650073
951039 833484
938511 835119
944694 85602
583873 839782
455505 893260
58464 908370
358496 397280
331811 781512
817119 702449
840983 410015
144744 923979
373649 85275
5020 441444
893433 264263
796732 316499
962161 530309
917785 80381
319356 361259
41792 748024
120809 989790
828827 427907
742573 742842
202630 139783
892381 741338
312833 964369
186319 623505
143789 89130
122488 710260
827123 853915
557433 281180
428972 465869
154220 787105
159804 507935
76739 587644
47523 953241
319513 887099
957642 514595
63069 216840
987797 887912
681158 824893
541599 720030
732845 925943
983654 820183
364590 369655
736192 188508
321586 965681
816460 650248
464377 547194
156340 598436
814044 48539
336784 722765
187518 787809
842196 635509
970751 40628
341086 771046
195757 855173
322762 397272
779468 377122
632480 230100
338923 735910
790787 186634
808499 99663
900917 775803
757714 271454
776189 782741
642897 922456
774481 812813
224319 825508
512904 131101
671851 493224
80566 71775
384297 547133
111318 482787
604667 273093
323858 898476
872392 417666
341192 863557
357651 155327
143969 698879
704546 791254
54244 865131
265639 105690
328130 37531
400877 3980
187977 439986
286129 512973
543156 87947
101122 47788
932617 634035
114042 554077
902666 6346
161499 732900
409911 118250
441899 261006
731978 835423
576233 929355
357311 676264
737826 747425
946137 673628
658532 960112
870011 217546
704584 396092
696804 229822
752866 919987
735602 111380
278055 426992
387490 392655
793725 421225
221067 608344
429873 41747
34399 570404
770587 486698
474238 463419
535861 455758
899076 790870
183401 74521
750920 514994
232408 364913
950335 78896
278178 985025
705141 824
363751 462101
880843 253729
683948 223121
82439 195260
806823 11751
62111 715421
970471 852194
166283 249062
343605 577096
927909 498373
199122 996041
501843 619902
866493 564885
429092 170301
291213 160275
21591 885100
982363 12272
391659 896025
653553 764476
770148 20882
191696 831875
900457 252359
668855 726649
889163 978399
466354 548111
879312 17559
580244 52758
877747 241267
68359 1893
953971 131695
983593 125524
968133 414958
857290 329332
588963 679132
783994 734396
717677 916704
832016 449902
224407 230001
491657 466018
577046 843153
162757 256460
527455 812484
708743 825342
110615 348776
957616 5066
738447 731537
353239 298422
639597 187025
711108 856693
400015 104684
180824 903913
630120 609789
916731 94888
651504 967853
111501 926515
1993 923359
75476 402089
275992 763883
269908 939644
564361 367521
864918 628923
118130 877624
838738 752095
463819 164035
141289 1174
668722 190075
138686 72878
180722 377244
607876 170285
557858 462323
583333 720400
294073 525799
879008 293700
380009 731308
750551 527883
527177 624311
100429 696927
233498 640951
850679 604362
434 860375
177923 269496
769679 204297
489687 929604
622460 240147
173011 859228
894082 428094
80816 626061
821075 854181
624865 58086
378265 803807
694408 538688
850045 333641
634436 425982
