743270 753511 424
656938 48298 509
412275 212707 449
221252 483115 449
234578 401199 441
775736 768829 437
471663 282039 449
8096 652501 509
404832 347084 436
315978 552148 470
864729 691940 525
24371 360872 443
972889 685217 525
773981 897586 525
115122 425486 449
283043 270471 389
840683 336272 525
282464 640497 509
784912 619167 509
170748 330089 443
360970 358582 410
93299 868187 525
738806 287970 509
496935 743173 509
58022 365063 443
249102 366261 441
524575 14409 470
19787 359736 443
618973 145027 470
849916 731042 525
381152 347181 423
288407 310715 389
318588 175685 443
506769 963612 525
835661 544075 509
674261 133269 509
430382 991115 525
990242 844036 507
342002 1888 443
983680 356916 525
763438 782837 468
179536 869091 525
373864 673244 509
485659 357091 449
983535 905305 507
512541 111398 470
679420 867366 525
243378 964297 525
830022 130824 509
836086 991354 525
822748 355255 509
731029 86981 509
748834 264012 509
47138 526398 470
999694 601690 525
302907 330855 384
887711 785024 525
614122 900180 525
685467 904276 525
192833 637419 509
433903 859501 525
456473 828179 509
103000 142857 375
719535 552769 509
1103 86468 351
506145 935566 525
701704 378659 509
61400 825732 509
726055 623531 509
142467 867149 525
124899 919264 525
800871 300954 509
149238 423633 449
388739 7415 443
413756 806695 509
586580 911395 525
611428 524220 452
250902 467525 449
136723 263338 443
424530 255481 449
622070 640716 509
619308 812297 509
97532 266339 443
697603 37885 509
460610 969710 525
288318 312741 389
408430 640586 509
36807 920594 525
809103 436746 509
377678 805755 509
747418 647285 504
674565 465903 509
84128 764884 509
746973 998771 525
310442 908549 525
255439 672872 509
465054 344539 449
245922 71657 443
214695 27142 383
39364 436630 449
498968 989125 525
596348 628456 509
945958 258010 525
887865 828986 525
646501 752442 504
237086 736691 509
533964 604913 452
616049 412652 470
860415 992676 507
978433 662989 525
388164 253170 441
240044 158024 443
411790 105986 449
8964 179781 383
228783 768351 509
836702 482526 509
613131 962326 525
117295 339735 443
299484 819556 509
149728 964885 525
662321 445899 509
152690 988348 525
705880 290328 509
73235 779832 509
852947 54059 525
985950 578067 525
471703 349535 449
368346 114693 443
284971 155057 443
801856 883493 525
622509 128320 470
289207 949150 525
296813 541356 470
529056 286423 470
701405 636353 442
223484 21835 386
682135 614824 509
595238 831208 509
998674 232002 525
87185 141975 354
30838 147551 375
721573 40038 509
686706 1474 509
119182 360566 443
867552 116286 525
853241 856661 419
62661 603358 470
299945 906946 525
911808 809613 525
649562 609557 509
107861 828003 509
245448 836392 509
149734 495823 449
450240 104506 449
256 385348 443
833860 657966 504
611435 478240 470
263074 561317 470
905284 843623 445
740837 241071 509
694329 919801 525
294737 973938 525
820493 800065 450
687822 71142 509
717589 872006 525
208214 353788 443
620890 886021 525
682890 825200 504
225981 828631 509
646733 179623 509
310672 853546 525
414876 849352 525
638074 34358 509
701478 279362 509
399206 63876 443
360382 858056 525
473599 962442 525
811346 764128 468
440372 7310 449
599134 536122 452
143961 810035 509
609547 707593 509
799918 927009 525
699151 801589 504
527899 679390 509
998583 312733 525
713117 962811 525
725618 129922 509
430011 587932 470
868504 196380 525
828981 738491 468
174109 577025 470
352852 492869 449
678306 86681 509
107685 498632 449
117580 556526 470
255394 7916 443
243697 331330 407
273323 913336 525
559625 679080 509
462431 442651 444
518824 614348 452
459606 398912 449
759767 932826 525
788502 599835 509
152451 328584 443
291896 979378 525
800584 925018 525
791409 480033 509
543444 941674 525
864319 961884 507
795152 795476 331
503974 929894 525
939621 513248 525
870402 999621 507
930133 100095 525
638554 896957 525
790970 22346 509
256011 867757 525
337799 138597 443
276229 737895 509
789683 871525 525
894576 74691 525
980673 449427 525
320138 751119 509
479299 192169 449
346424 163576 443
718074 444700 509
244976 211382 443
18021 258723 443
363503 82044 443
142093 320967 443
935432 569650 525
170698 767279 509
726562 373209 509
850989 662365 525
85984 403685 443
