534739 410027 470
336143 208833 443
638958 545167 509
524546 837775 509
959881 318340 525
801087 163436 509
371777 876575 525
983649 820566 525
362196 518680 470
463972 633488 509
85683 695304 509
645418 248 509
695483 304945 509
587474 50509 470
981594 222166 525
998368 630410 525
949027 526518 525
815891 459078 509
497659 603471 470
554281 605128 434
700756 633218 442
220116 400434 443
714354 315077 509
942976 925457 507
664119 238781 509
325940 230126 443
163756 431649 449
286536 313048 389
490910 8865 449
127420 418397 449
481163 66418 449
207624 379528 443
865829 620938 525
698898 872091 525
836038 929391 525
93715 519982 470
477092 550205 470
347516 130340 443
140159 470839 449
351504 144514 443
811897 150273 509
593508 521865 452
243737 496694 449
162131 632282 509
585768 423430 470
744385 479082 509
942729 100677 525
881833 868698 432
806454 693899 504
725676 984319 525
31436 763256 509
32886 562441 470
564248 393065 470
659804 383687 509
352837 865511 525
9388 733332 509
944738 154680 525
436837 567859 470
108887 858387 525
563080 898853 525
85743 701390 509
877629 13840 525
824478 741467 468
22661 185479 383
402123 428368 449
595727 741481 509
806930 909964 525
413160 283554 449
985467 954973 458
553085 531519 452
989921 416972 525
732812 45138 509
554028 336869 470
926956 770402 525
613680 531661 452
117462 501391 449
843431 816793 525
469696 740034 509
480716 10647 449
150597 188999 383
370114 354868 410
386723 377234 379
821475 554915 509
419655 514697 470
218378 461355 449
919744 177183 525
274995 832803 509
641875 769774 504
894722 736317 525
35872 749088 509
974233 272811 525
190570 193967 347
296962 168080 443
497267 506053 426
418693 606993 470
771504 594313 509
977028 283485 525
304147 308879 371
564990 293064 470
143965 27977 375
635792 335705 509
887332 323391 525
520781 973617 525
176912 294111 443
712369 987116 525
685595 762741 504
556228 789633 509
784651 859318 525
510263 615313 470
531616 378821 470
279064 347923 441
945508 68729 525
341962 195607 443
127636 451498 449
402003 999967 525
667243 612834 509
536902 323801 470
402644 62730 443
847336 489998 525
739311 120402 509
499737 146819 449
165186 402933 443
567970 409853 470
218635 229694 368
701983 346952 509
422279 821586 509
688254 99190 509
316220 413814 449
337189 296942 384
746434 599214 509
566942 456495 470
199645 417009 449
502362 363716 449
477347 920383 525
243473 566991 470
154631 429272 449
364738 817997 509
584530 562586 434
47466 899661 525
714708 16073 509
301558 430647 449
772526 374625 509
781966 50958 509
20815 448733 449
410868 40741 449
877773 505794 525
754441 344555 509
594435 983131 525
214955 531954 470
840073 178383 525
560930 903420 525
874577 831066 525
17781 752646 509
967349 294448 525
534419 140518 470
787714 833804 468
361772 180195 443
424893 755011 509
456419 442151 387
30734 327629 443
512794 683798 509
317144 450783 449
571905 493715 470
436561 520212 470
427035 143873 449
12514 892457 525
2167 370818 443
234331 444783 449
854278 334823 525
825160 524486 509
105168 343388 443
637000 697873 442
938086 784054 525
725966 716523 411
102840 495011 449
234991 20944 443
785669 903633 525
759304 75227 509
557949 73819 470
562529 960490 525
758309 689592 504
758105 345651 509
165795 486824 449
501283 378741 449
778480 528901 509
912856 604928 525
740621 188871 509
490597 150556 449
351001 427902 449
202335 898789 525
972518 497079 525
542869 375759 470
237829 942221 525
125625 391892 443
735445 371074 509
753202 834905 468
18390 431313 449
988474 205105 525
415607 802005 509
870404 482210 525
716005 239294 509
30545 44421 324
710675 676102 504
867790 552662 525
957270 24612 525
736650 630657 504
240920 484352 449
204168 434545 449
474832 994675 525
361307 405497 436
779094 485864 509
807644 774468 468
884108 402594 525
333760 445434 449
844 764036 509
270971 283744 389
325505 286531 389
761481 540068 509
518848 570046 452
960021 824940 525
660333 75414 509
654191 48082 509
760720 34681 509
