880407 897908
712270 233771
137973 466355
89709 872656
68710 345017
990019 419585
618068 145425
441086 67588
506058 892093
792737 326839
878621 760024
801659 333937
506520 694626
615006 469117
145561 815538
151721 280925
49814 336692
899909 415585
412912 238721
442562 284650
619188 793025
209417 955119
513057 696918
624659 392374
129169 410404
152916 753720
42199 723075
399408 79355
318113 271888
878404 906347
270350 472346
619488 845461
221701 414881
102155 491149
336070 168396
906455 49838
603449 470986
328128 741363
727103 166325
969024 705100
863223 897712
612717 984577
135830 648560
155713 835733
772135 239188
66249 420088
348195 866734
580661 234248
998103 633711
155102 816644
113994 67690
23190 529345
794258 926091
734001 63479
814435 897863
150953 420859
120489 314100
670422 567217
590502 709873
427048 418783
883679 741482
608342 742866
880315 686753
993097 703738
698395 986494
889125 618899
19363 970797
230563 490165
166595 410826
506716 870170
962920 641888
389501 625172
694998 188834
887266 590830
436118 682157
541470 348379
774108 605348
959618 438923
473758 980844
7960 94143
287797 968702
484006 897861
300586 675552
944575 65691
27472 908621
960465 678860
313740 19220
309274 71815
920370 822239
583160 927397
203578 185754
612870 37428
689947 550744
329307 443510
251117 537691
652625 353625
481747 551421
695688 465843
708612 390884
678184 420335
997124 186536
172743 957883
792554 582707
133883 339840
593665 953659
97215 205964
37593 700370
211953 140457
819882 964204
396237 440150
608345 495659
6192 817766
997944 203928
785537 488880
40080 321560
682664 690517
764583 92124
53212 41439
512191 482727
673851 799342
40264 926815
461935 282020
397010 368957
457660 468326
658020 936615
641938 521543
460644 94537
749229 544680
150629 57019
600584 782745
938222 499085
674942 607435
350330 112560
475391 339296
424871 237027
801056 899460
520615 340384
385125 470466
148277 832698
996351 985089
973364 661324
590454 576059
356158 813080
338631 68974
717958 30285
232652 711526
712556 364067
318838 755368
630762 32748
766665 262312
339233 720165
974032 451271
305897 362703
477790 891643
679004 542510
846784 635672
11564 572979
169826 596609
278005 218636
229811 659195
928575 10377
539091 806534
113912 611658
385913 911605
159610 204204
451014 388779
849499 622974
648028 813781
912237 566968
522360 335616
737435 494693
339913 560344
588034 60068
120416 904699
487269 412615
635215 721460
553253 717995
215590 849719
516600 927378
536653 923468
884409 277260
128701 385500
326713 634095
34167 451985
699368 516360
965811 242096
175476 816986
984191 669298
881531 263798
821127 940948
830812 562556
705522 246631
891847 879488
423702 627280
770373 561513
964030 807209
845402 483159
937018 846899
800607 307054
787516 305032
499358 311095
793161 327833
117886 166869
278805 98395
505133 395608
314661 140798
836472 587782
936510 457400
274322 756185
237214 96273
247664 166448
776666 51855
805199 725220
717980 291173
654604 580572
670837 165605
870382 190725
270562 851842
970350 829029
473050 635409
446215 635420
587618 313840
494736 951729
435564 832759
85544 752786
182962 642345
910231 49690
451629 394436
402257 332717
994236 125610
57907 652777
360952 979885
96468 984909
786623 849480
994397 146693
447320 586669
994160 49644
279731 257169
64538 229743
741783 3986
134648 116249
886487 654883
853463 915860
510724 56605
362372 372236
885363 720514
58578 42204
215399 591892
968061 58270
95953 844725
978879 392197
81160 743891
322338 384797
59292 325422
940504 386767
510143 806139
313261 415798
632951 990878
421662 771047
968464 463411
765491 459421
302135 14906
972404 89252
604527 355680
637160 542100
727255 306668
958567 113467
538666 345501
427827 572515
827787 386579
124553 968505
324038 833007
129027 904541
705868 475510
933293 771190
60856 618217
49511 499695
611367 423956
385682 297571
538155 176630
857094 874245
976067 333120
50480 251795
409486 631702
22184 755861
720511 963899
42618 884620
405502 777453
769577 881230
811457 464472
53238 293008
788567 966873
515360 869397
926591 209411
275224 482438
303501 989043
290762 687432
740042 552648
367630 215057
63149 843106
560933 752212
288195 81478
