82384 422045 449
716119 437687 509
635406 781262 504
586385 424709 470
812714 218979 509
922421 89848 525
823432 423034 509
61673 457305 449
696774 224484 509
302004 435503 449
220541 810445 509
310289 239206 407
175951 570775 470
863744 973182 507
364079 384563 423
632394 887339 525
287319 536457 470
938808 687572 525
910230 355179 525
842858 956937 507
772655 768583 393
946607 65307 525
144098 929679 525
147470 353818 443
893156 170717 525
551000 66792 470
348039 841819 525
198058 760712 509
141255 541667 470
739418 965805 525
662119 756426 504
193659 314350 443
464824 995232 525
572264 272430 470
649949 973330 525
564050 805889 509
529951 876946 525
719390 466475 509
54182 311094 443
52086 429829 449
686099 545475 509
799745 476396 509
49985 291234 443
177645 748083 509
248754 830883 509
294766 794110 509
124104 5878 354
103232 233040 443
584275 50638 470
16924 23014 279
244369 788198 509
378267 566272 470
147367 887568 525
444327 165806 449
984117 576037 525
369391 868953 525
314815 269112 407
83402 998650 525
703695 46673 509
583257 668736 509
605153 418590 470
396940 823065 509
889334 64898 525
369177 992665 525
909325 2645 525
495280 94561 449
425887 952357 525
982193 558983 525
921580 53481 525
298274 228065 443
591151 327375 470
865772 429287 525
101901 696396 509
84390 942772 525
329328 801632 509
928662 55519 525
772044 99895 509
432986 104398 449
743190 863930 525
874447 535702 525
368777 619310 470
345679 234085 407
601660 258543 470
646463 219436 509
69667 263955 443
438126 548755 470
922104 651100 525
360457 979881 525
131310 251422 443
647450 3762 509
801520 797787 393
251723 57711 443
840957 522998 525
61427 843545 525
968923 638315 525
540228 659875 509
526283 928593 525
63062 706312 509
793961 780130 437
747035 454974 509
653332 238079 509
402267 827166 509
28070 126775 354
661817 159443 509
881796 247103 525
187035 49773 383
866139 85240 525
285694 399318 441
511046 488693 426
200945 816965 509
659700 118324 509
911969 499589 525
637492 470292 509
949094 52627 525
625661 436854 470
510972 787426 509
330448 439287 449
990720 195958 525
565677 80619 470
913138 291131 525
480002 53545 449
448496 644138 509
969274 865979 507
890334 664359 525
338956 675784 509
836598 969474 525
722867 26418 509
909990 708525 525
918347 692372 525
213399 155836 383
772223 793298 437
810015 191639 509
85198 155872 375
784698 540879 509
757500 710668 424
227187 625033 470
278682 560596 470
473436 520361 470
359822 220058 443
412534 541867 470
340334 80303 443
526183 18925 470
960842 595452 525
989946 981932 427
94776 952155 525
617454 876613 525
133795 365320 443
899355 259791 525
414520 45188 449
93225 191088 383
357918 187687 443
824550 984228 525
338998 117179 443
182743 571770 470
343542 393978 441
868138 836055 525
964395 255445 525
224523 126619 386
114297 473290 449
707718 361970 509
815969 98103 509
198087 285736 443
556803 576814 421
494347 140050 449
551114 487966 470
475122 315617 449
62912 401432 443
654119 313512 509
718782 938805 525
253202 599215 470
477608 548781 470
662689 175177 509
971276 380789 525
335129 414678 449
583848 148698 470
565703 944929 525
260192 322421 407
179450 379896 443
907196 279640 525
204600 840244 525
9782 162711 383
730004 766886 424
529407 31789 470
247573 174547 443
722040 804695 468
738903 497006 509
92597 88755 333
758309 220831 509
137065 986876 525
112197 516541 470
703112 31271 509
302396 341199 384
694253 152559 509
616805 18275 470
244468 145253 443
653264 909775 525
205452 469389 449
360580 372555 392
48246 332990 443
452998 945099 525
145759 421874 449
227411 399762 443
791899 254160 509
601129 696192 509
973687 135416 525
236512 721499 509
261559 632929 509
149559 303710 443
103733 492800 449
908667 811418 525
162210 631545 509
831784 703283 504
227417 837105 509
708932 941137 525
974161 825137 525
558758 643086 509
588707 15021 470
999536 469934 525
84616 271029 443
288179 506289 449
16314 120971 354
128220 352695 443
961690 664120 525
816961 116570 509
51933 273534 443
177899 10366 383
792018 879769 525
181030 949760 525
767494 477427 509
616076 760545 509
317605 31486 443
954473 436823 525
660713 963053 525
769458 538343 509
