986583 992427 396
116814 988376 525
727318 558502 509
143253 271936 443
812184 658793 504
157970 21726 383
250753 376555 441
866532 51294 525
868835 860405 388
686867 79464 509
490334 947954 525
86234 345660 443
540883 661613 509
938343 138544 525
607259 82453 470
167674 133827 383
132712 679094 509
407629 8805 443
663462 552690 509
795342 925788 525
311667 283768 389
843907 756253 525
176351 628303 509
375859 388153 423
155840 467319 449
885925 217961 525
965329 308142 525
86034 929731 525
466658 225183 449
833169 621013 509
452566 308541 449
205986 263912 443
181600 75557 383
259638 115925 443
151679 497300 449
552369 998652 525
590665 639696 509
484469 374477 449
872854 565060 525
922402 850893 476
431083 841828 525
722466 41188 509
707005 710565 380
178702 250061 443
295393 356584 441
860754 62515 525
234601 206142 443
824995 90590 509
604871 564848 434
754482 136576 509
465183 363749 449
706879 983725 525
979792 623769 525
224266 597768 470
479655 593392 470
65453 639059 509
704936 671154 504
702047 287246 509
102229 51297 351
462099 133846 449
763626 587809 509
915667 506965 525
895461 369948 525
284275 514490 470
473361 312018 449
507094 564251 470
790397 649327 504
699041 977214 525
715207 54395 509
247369 944749 525
700918 704745 504
387424 439740 449
666811 971546 525
428002 745506 509
11512 63149 340
536243 929118 525
272649 892775 525
683106 424273 509
547886 555802 421
999689 824363 525
881240 868377 432
717050 308807 509
544242 372406 470
82416 899716 525
286548 956339 525
123543 54422 354
786240 76478 509
500871 513390 470
653813 969287 525
120915 313440 443
70524 286406 443
641397 119044 509
390592 572756 470
890428 741762 525
116416 851948 525
106561 483590 449
850934 938130 476
282936 919362 525
25412 733112 509
280661 609008 470
513943 308490 470
142036 486816 449
640545 376084 509
361894 215602 443
798966 868637 525
854556 313522 525
522184 310188 470
833842 736678 468
321268 97566 443
385597 994167 525
563517 146555 470
198227 468921 449
275052 164220 443
116960 727413 509
984108 576567 525
351421 610470 470
610096 664040 509
610685 279114 470
504295 578852 470
728652 382065 509
214661 493653 449
305879 674041 509
541360 82936 470
519837 632704 509
854644 332652 525
956557 874019 507
207283 997999 525
508824 454197 444
892794 173305 525
4774 775867 509
271938 977207 525
759902 697203 504
814386 371013 509
174828 91162 383
83653 62 351
922189 914343 432
335839 672297 509
498442 905826 525
399230 211345 443
355623 214942 443
666491 282808 509
615889 420464 470
233904 601229 470
76425 646963 509
647615 811917 504
589776 300435 470
213840 769592 509
475281 9806 449
849108 871464 419
123988 462134 449
664215 954598 525
438472 352331 449
478597 483742 413
264271 194351 443
203477 565472 470
672951 826315 504
881274 243018 525
597568 823464 509
856093 576751 525
390169 194343 443
803496 240568 509
578673 103375 470
466353 609966 470
789058 185278 509
174587 606070 470
578210 130415 470
274263 471398 449
182867 251564 443
896951 691839 525
881242 681232 525
75390 885974 525
152220 740500 509
394635 517058 470
665892 855779 525
719400 368936 509
324829 965136 525
675838 768261 504
977762 22857 525
863374 935167 476
477404 155471 449
258388 295258 407
351607 394839 436
928782 919290 476
335974 822511 509
275002 733305 509
895813 842223 445
466930 879027 525
500668 550540 470
790163 400169 509
575070 613999 434
990728 894463 507
151929 963607 525
307276 381556 441
160201 570997 470
933460 610750 525
184412 713703 509
509340 38089 449
260508 595517 470
627070 722733 504
854564 168547 525
540544 650259 509
254339 771559 509
315825 624691 470
780411 793999 437
546570 293403 470
923237 818474 525
303842 346722 441
522849 731022 509
879207 737605 525
139380 58778 354
695276 479693 509
365148 849798 525
237837 476470 449
475134 543233 470
707387 395291 509
782646 34272 509
29698 514386 470
60309 334360 443
960011 21785 525
422801 549336 470
227617 208630 386
90249 586004 470
962233 457247 525
418288 810935 509
597885 748876 509
779685 988755 525
257728 310877 407
113246 589501 470
444940 605053 470
636893 924519 525
955402 845561 507
