498913 243439
197531 309770
538889 694237
108370 906374
345616 634954
6069 838788
555011 895288
683726 239594
137100 715077
133880 643771
626449 767359
246151 396589
868064 646255
298225 654700
940101 80240
945847 393108
989280 186059
248886 304480
801784 954956
6319 22804
807283 397770
115119 401026
189298 602874
22866 270275
294728 919542
19537 275967
805940 792535
986823 360722
70714 819763
227801 473820
158241 996672
808699 383398
675540 529454
151647 233014
728693 735227
307576 136194
746904 5311
445898 146481
136230 247536
99338 675564
378575 113542
82094 286448
534670 486268
198704 893183
619908 492087
387233 536928
580167 233892
333791 133140
592971 978480
267775 781047
545967 537329
594177 535994
154080 543407
626715 992154
199864 847868
980345 382942
56572 583270
285606 314154
205170 66923
297326 356122
534215 955995
183823 664803
642049 216031
211001 382918
678142 214694
24480 490764
420407 591240
700475 851289
744168 776943
344327 126850
961405 367059
714250 645797
282956 865163
977931 680855
114710 823184
96501 725435
791308 256422
207111 555741
342975 284992
155365 683017
765594 841337
345264 888015
536602 508263
256470 407112
2099 732702
719013 256233
507831 128808
853375 379545
272872 278474
272722 993356
777775 796241
644807 682998
899322 208692
238226 333150
115170 122541
259725 693195
330254 227964
405737 314467
459338 461945
636168 925607
173267 311781
750345 697992
870763 56864
850492 813798
811211 197295
430875 864625
827678 148288
755221 655986
761595 103750
719685 186139
925630 192403
704137 952369
123356 310118
165161 99807
427549 904252
822358 132405
106354 103559
52600 144614
120419 301891
472022 10334
415927 99389
338154 288861
994788 170042
151442 715726
610133 590163
813774 296018
422494 66439
584203 638037
551437 451876
743989 369261
745010 125004
135718 930870
940234 505604
117002 929323
160959 995864
531694 826483
565021 612153
729394 660196
225044 968875
928802 281718
162032 690154
947625 183148
885144 273859
98978 955929
270993 119764
230479 404321
396928 517935
338608 695091
871554 91203
147095 529466
945934 912861
671205 316405
682094 825246
80878 12997
850977 705336
211296 925085
573233 967476
956893 352260
684598 540529
808454 290016
928389 620280
833006 546410
575979 244899
844919 118924
566693 441497
792378 864730
818721 621019
437576 626485
6678 162186
908977 458019
957310 66454
158593 70005
53418 146144
291086 684110
10396 781673
566012 108751
718143 512356
71724 337082
305376 607233
261372 17598
624629 65432
972620 930798
431269 816443
488197 675468
167043 723039
245782 441287
708474 274453
94562 884546
913660 285450
900896 465191
748901 455740
646683 898103
358662 755112
744957 287420
112868 872308
820543 795249
252016 368167
226336 132011
497511 727956
55773 656484
19736 47563
693291 49571
703809 23849
375141 240225
708889 807917
580403 522433
67 869614
117423 70640
277398 175948
636092 848614
47970 389673
57214 731468
686982 770785
934322 696637
