498913 243439 449
197531 309770 443
538889 694237 509
108370 906374 525
345616 634954 509
6069 838788 525
555011 895288 525
683726 239594 509
137100 715077 509
133880 643771 509
626449 767359 504
246151 396589 441
868064 646255 525
298225 654700 509
940101 80240 525
945847 393108 525
989280 186059 525
248886 304480 407
801784 954956 525
6319 22804 279
807283 397770 509
115119 401026 443
189298 602874 470
22866 270275 443
294728 919542 525
19537 275967 443
805940 792535 468
986823 360722 525
70714 819763 509
227801 473820 449
158241 996672 525
808699 383398 509
675540 529454 509
151647 233014 443
728693 735227 380
307576 136194 443
746904 5311 509
445898 146481 449
136230 247536 443
99338 675564 509
378575 113542 443
82094 286448 443
534670 486268 470
198704 893183 525
619908 492087 470
387233 536928 470
580167 233892 470
333791 133140 443
592971 978480 525
267775 781047 509
545967 537329 408
594177 535994 452
154080 543407 470
626715 992154 525
199864 847868 525
980345 382942 525
56572 583270 470
285606 314154 389
205170 66923 383
297326 356122 441
534215 955995 525
183823 664803 509
642049 216031 509
211001 382918 443
678142 214694 509
24480 490764 449
420407 591240 470
700475 851289 525
744168 776943 468
344327 126850 443
961405 367059 525
714250 645797 504
282956 865163 525
977931 680855 525
114710 823184 509
96501 725435 509
791308 256422 509
207111 555741 470
342975 284992 389
155365 683017 509
765594 841337 525
345264 888015 525
536602 508263 470
256470 407112 441
2099 732702 509
719013 256233 509
507831 128808 449
853375 379545 525
272872 278474 389
272722 993356 525
777775 796241 468
644807 682998 442
899322 208692 525
238226 333150 407
115170 122541 349
259725 693195 509
330254 227964 443
405737 314467 441
459338 461945 444
636168 925607 525
173267 311781 443
750345 697992 504
870763 56864 525
850492 813798 525
811211 197295 509
430875 864625 525
827678 148288 509
755221 655986 504
761595 103750 509
719685 186139 509
925630 192403 525
704137 952369 525
123356 310118 443
165161 99807 383
427549 904252 525
822358 132405 509
106354 103559 354
52600 144614 375
120419 301891 443
472022 10334 449
415927 99389 449
338154 288861 384
994788 170042 525
151442 715726 509
610133 590163 403
813774 296018 509
422494 66439 449
584203 638037 509
551437 451876 470
743989 369261 509
745010 125004 509
135718 930870 525
940234 505604 525
117002 929323 525
160959 995864 525
531694 826483 509
565021 612153 434
729394 660196 504
225044 968875 525
928802 281718 525
162032 690154 509
947625 183148 525
885144 273859 525
98978 955929 525
270993 119764 443
230479 404321 443
396928 517935 470
338608 695091 509
871554 91203 525
147095 529466 470
945934 912861 507
671205 316405 509
682094 825246 504
80878 12997 351
850977 705336 525
211296 925085 525
573233 967476 525
956893 352260 525
684598 540529 509
808454 290016 509
928389 620280 525
833006 546410 509
575979 244899 470
844919 118924 525
566693 441497 470
792378 864730 525
818721 621019 509
437576 626485 509
6678 162186 383
908977 458019 525
957310 66454 525
158593 70005 383
53418 146144 375
291086 684110 509
10396 781673 509
566012 108751 470
718143 512356 509
71724 337082 443
305376 607233 470
261372 17598 443
624629 65432 470
972620 930798 507
431269 816443 509
488197 675468 509
167043 723039 509
245782 441287 449
708474 274453 509
94562 884546 525
913660 285450 525
900896 465191 525
748901 455740 509
646683 898103 525
358662 755112 509
744957 287420 509
112868 872308 525
820543 795249 468
252016 368167 441
226336 132011 386
497511 727956 509
55773 656484 509
19736 47563 324
693291 49571 509
703809 23849 509
375141 240225 441
708889 807917 468
580403 522433 452
67 869614 525
117423 70640 354
277398 175948 443
636092 848614 525
47970 389673 443
57214 731468 509
686982 770785 504
934322 696637 525
