436382 658392 509
197696 494207 449
313427 431117 449
287153 607064 470
434244 435183 356
494230 380420 449
319717 864124 525
790904 870712 525
138942 224838 386
780984 771635 437
461430 851001 525
646453 247282 509
532598 704308 509
298627 385337 441
442735 382881 449
430621 393001 449
276965 669849 509
75711 291393 443
242764 122149 443
546534 699395 509
984724 660857 525
520695 96065 470
117802 41568 354
637504 666746 442
538391 928432 525
758906 518675 509
519901 426554 470
216796 71735 386
472311 40570 449
667078 50021 509
198266 313806 443
788353 130754 509
12959 131768 354
254583 621984 470
182518 445557 449
78234 303300 443
811544 989548 525
264795 49205 443
368596 90893 443
454493 789687 509
905872 196728 525
785362 414885 509
413952 138308 449
734390 383029 509
545201 651446 509
955096 252448 525
95870 575764 470
928485 409072 525
168888 209598 373
201496 870606 525
515581 957185 525
527358 133686 470
970519 148144 525
500140 360970 449
150411 141141 375
983044 723373 525
90094 173642 383
101423 584595 470
213636 995569 525
771576 122850 509
928600 321456 525
77468 306090 443
243958 268847 407
280682 90455 443
857853 829967 525
596004 933173 525
711557 69494 509
305833 399440 441
699328 234436 509
559194 250241 470
609222 616975 447
920088 13206 525
881153 15545 525
540952 381503 470
160218 57553 383
33575 548553 470
754057 208342 509
979400 657996 525
127682 368562 443
87651 461477 449
537534 892717 525
789846 552747 509
571768 303327 470
474190 639682 509
668527 739500 504
583764 251171 470
59018 983033 525
266605 249083 407
35592 546219 470
544492 710477 509
521137 634888 509
260576 795808 509
907831 48020 525
719904 935371 525
391339 465310 449
274875 864965 525
356952 265392 441
869446 70223 525
577632 136868 470
835097 973453 525
178297 894840 525
310303 920698 525
565592 834489 509
34160 617044 470
727723 478471 509
741179 793990 468
216785 349264 443
310067 467576 449
692254 253575 509
797947 725976 468
128121 424204 449
343189 77889 443
349472 610145 470
338061 230162 443
975707 769560 525
199141 493408 449
114486 927120 525
143786 654872 509
468951 784582 509
444595 413899 418
611031 339483 470
31881 764266 509
252651 70821 443
618078 34933 470
62346 874714 525
899666 615343 525
292469 778893 509
286669 551904 470
224248 455265 449
335313 977054 525
697152 406408 509
58519 774238 509
760681 245770 509
336839 581492 470
189664 539932 470
196257 499405 449
545187 102030 470
21333 50131 324
625133 479529 470
702165 165428 509
182512 596780 470
236711 9612 443
222639 419696 449
107041 822180 509
945969 919772 507
420528 805855 509
105852 602403 470
899044 223595 525
926001 433056 525
921033 110138 525
600519 924127 525
645869 359731 509
845609 200931 525
550494 195731 470
467368 388703 449
215434 123925 383
411996 345709 449
963181 958733 414
8731 499089 449
438134 461471 444
151846 772761 509
540104 166500 470
361418 326836 441
811108 383290 509
321636 267954 407
822128 442929 509
835179 701027 504
430426 451698 400
561089 366854 470
371273 481069 449
245248 895114 525
864304 102649 525
997148 78124 525
389541 521103 470
513242 55091 470
499604 793471 509
508876 697921 509
312782 12223 443
129142 638998 509
102889 268730 443
14455 258061 443
409769 270433 441
905770 39843 525
622660 668356 509
517943 222695 470
113830 23742 354
541287 421586 470
467538 982929 525
677079 506967 509
491668 198402 449
302914 415639 449
703285 962143 525
173642 877288 525
20677 532080 470
958616 913186 507
681450 459674 509
422032 695110 509
795439 872681 525
450389 768093 509
904217 507488 525
81090 269144 443
404174 351890 436
268064 659178 509
995946 565604 525
402057 798769 509
873769 941930 507
827666 356274 509
660128 390922 509
330427 104113 443
502013 850830 525
841421 608985 525
649858 662015 429
317339 181236 443
790911 361260 509
7980 261302 443
703219 634415 442
911244 131722 525
442998 995249 525
80516 436934 449
569345 144100 470
399008 102039 443
861927 608460 525
907528 155129 525
115830 466990 449
70113 313236 443
774440 997034 525
863767 840781 419
757318 329272 509
248388 996514 525
143445 643830 509
536517 371488 470
477174 696247 509
426639 775282 509
107766 988730 525
