600211 413535
639049 205167
594452 196493
13502 495807
222741 988669
602366 908775
2243 448189
664813 852846
272984 386945
757867 433042
380798 87712
577992 817183
313301 619386
148700 787301
821361 732379
725572 690849
562083 255201
688818 37769
875832 238939
494718 584982
135439 417110
780434 368787
322787 581395
697077 557690
23878 689338
444299 524424
737013 331505
85004 623669
110089 808245
71139 471856
513865 330635
827511 721146
583655 825056
780975 707368
556387 504890
622591 212212
123917 574825
742743 63237
482269 789232
695949 531112
132384 813648
869241 89772
670651 383654
931805 491521
955442 738827
161467 815741
756200 779521
913815 748567
678337 947330
138489 330922
146701 772917
950179 797545
349985 47667
612516 994552
140490 844247
95641 694658
378235 650777
365959 38015
293332 19937
39871 24004
787040 552676
156271 579884
564501 950008
7047 854995
337557 399807
554917 809386
802351 827715
575223 599988
729416 157877
768624 993093
142238 429815
589551 153978
56984 611760
497814 460123
143347 687999
379215 511061
225653 827722
652724 950387
263490 480540
264338 349675
935037 669957
485614 512555
445339 214925
466534 607885
155571 108570
402627 19651
306170 325657
294903 932582
670512 852265
810182 466643
554997 279395
955713 199425
564877 557314
337402 963006
224384 912832
551438 592791
929570 125885
820724 768461
549032 656488
206590 959382
381330 421916
71843 38835
238394 589422
934586 546343
477546 304482
954878 652000
577641 590475
565277 889683
589080 649288
239954 537189
913188 906233
889358 751519
476537 996915
720485 591101
237085 428012
259929 420004
790954 464858
491515 611476
436082 715253
156407 12390
237508 330851
246885 899653
229531 754186
716242 368802
29433 591835
127465 271964
10920 62776
283473 607563
60865 434340
771856 81233
357136 704514
880263 333070
829914 502660
838496 702966
110124 58462
127442 99708
437088 165437
162810 413837
169153 885006
539247 25964
877203 491340
802278 614669
584749 554001
934112 313889
618804 912199
688162 457362
482023 975843
466111 431819
932071 95677
363219 907638
684440 371062
305839 450716
268054 766014
870337 924047
420190 438931
223060 739554
836858 768157
629236 462644
379853 965100
602246 300719
432197 197711
856083 454907
267474 910304
41868 636187
363984 173550
125516 233633
449664 801201
537545 843822
323184 212632
651807 290712
249966 353872
263447 50841
334216 213148
526475 664332
834003 457025
838651 564838
565027 249867
794771 314248
879263 645485
849023 878389
186273 429247
754625 787508
246646 718458
79073 488142
763706 483818
982852 866572
839152 545218
192790 718857
630021 157609
866576 73387
972564 185555
226078 615607
212204 562037
356095 915381
616685 331776
253291 820414
44780 628686
730062 750082
5704 759523
810105 962403
480926 667536
686124 151272
885193 708629
535789 560015
628416 796490
367503 838363
612581 115465
912283 228075
209096 383315
746412 836641
789240 495493
339008 430490
259138 824770
436782 556951
489300 788912
884367 958376
11195 529646
44372 269873
69517 567670
682121 840273
380195 396480
977950 180985
742550 385534
80494 62102
611244 358382
979644 118567
149474 840621
76744 40492
773464 297196
468463 164491
435371 971306
26301 578746
